%YAML 1.1
%TAG !u! tag:unity3d.com,2011:
--- !u!74 &7400000
AnimationClip:
  m_ObjectHideFlags: 0
  m_PrefabParentObject: {fileID: 0}
  m_PrefabInternal: {fileID: 0}
  m_Name: introCam
  serializedVersion: 6
  m_Legacy: 0
  m_Compressed: 0
  m_UseHighQualityCurve: 1
  m_RotationCurves: []
  m_CompressedRotationCurves: []
  m_EulerCurves:
  - curve:
      serializedVersion: 2
      m_Curve:
      - serializedVersion: 2
        time: 0
        value: {x: 41.7, y: -195.02798, z: -4.056}
        inSlope: {x: -9.200005, y: 131.93997, z: 0.09800053}
        outSlope: {x: -9.200005, y: 131.93997, z: 0.09800053}
        tangentMode: 0
      - serializedVersion: 2
        time: 0.5
        value: {x: 37.1, y: -129.058, z: -4.007}
        inSlope: {x: -5.2889977, y: 117.01298, z: 4.0680003}
        outSlope: {x: -5.2889977, y: 117.01298, z: 4.0680003}
        tangentMode: 0
      - serializedVersion: 2
        time: 1
        value: {x: 36.411003, y: -78.01501, z: 0.012}
        inSlope: {x: -31.839998, y: 94.302, z: 7.203}
        outSlope: {x: -31.839998, y: 94.302, z: 7.203}
        tangentMode: 0
      - serializedVersion: 2
        time: 1.5
        value: {x: 5.26, y: -34.756, z: 3.196}
        inSlope: {x: -62.302006, y: 86.51801, z: 6.368}
        outSlope: {x: -62.302006, y: 86.51801, z: 6.368}
        tangentMode: 0
      m_PreInfinity: 2
      m_PostInfinity: 2
      m_RotationOrder: 4
    path: 
  m_PositionCurves:
  - curve:
      serializedVersion: 2
      m_Curve:
      - serializedVersion: 2
        time: 0
        value: {x: -29.92, y: 13.24, z: 7.78}
        inSlope: {x: 5.3100014, y: -0.55799866, z: 0.67599964}
        outSlope: {x: 5.3100014, y: -0.55799866, z: 0.67599964}
        tangentMode: 0
      - serializedVersion: 2
        time: 0.5
        value: {x: -27.265, y: 12.961, z: 8.118}
        inSlope: {x: 3.356001, y: 1.033, z: -3.5470004}
        outSlope: {x: 3.356001, y: 1.033, z: -3.5470004}
        tangentMode: 0
      - serializedVersion: 2
        time: 1
        value: {x: -26.564, y: 14.273, z: 4.233}
        inSlope: {x: 1.0649986, y: -0.47200012, z: -4.55}
        outSlope: {x: 1.0649986, y: -0.47200012, z: -4.55}
        tangentMode: 0
      - serializedVersion: 2
        time: 1.5
        value: {x: -26.2, y: 12.489, z: 3.568}
        inSlope: {x: 0.7279968, y: -3.567999, z: -1.3299994}
        outSlope: {x: 0.7279968, y: -3.567999, z: -1.3299994}
        tangentMode: 0
      m_PreInfinity: 2
      m_PostInfinity: 2
      m_RotationOrder: 4
    path: 
  m_ScaleCurves: []
  m_FloatCurves: []
  m_PPtrCurves: []
  m_SampleRate: 60
  m_WrapMode: 0
  m_Bounds:
    m_Center: {x: 0, y: 0, z: 0}
    m_Extent: {x: 0, y: 0, z: 0}
  m_ClipBindingConstant:
    genericBindings:
    - path: 0
      attribute: 1
      script: {fileID: 0}
      classID: 4
      customType: 0
      isPPtrCurve: 0
    - path: 0
      attribute: 4
      script: {fileID: 0}
      classID: 4
      customType: 14
      isPPtrCurve: 0
    pptrCurveMapping: []
  m_AnimationClipSettings:
    serializedVersion: 2
    m_AdditiveReferencePoseClip: {fileID: 0}
    m_AdditiveReferencePoseTime: 0
    m_StartTime: 0
    m_StopTime: 1.5
    m_OrientationOffsetY: 0
    m_Level: 0
    m_CycleOffset: 0
    m_HasAdditiveReferencePose: 0
    m_LoopTime: 0
    m_LoopBlend: 0
    m_LoopBlendOrientation: 0
    m_LoopBlendPositionY: 0
    m_LoopBlendPositionXZ: 0
    m_KeepOriginalOrientation: 0
    m_KeepOriginalPositionY: 1
    m_KeepOriginalPositionXZ: 0
    m_HeightFromFeet: 0
    m_Mirror: 0
  m_EditorCurves:
  - curve:
      serializedVersion: 2
      m_Curve:
      - serializedVersion: 2
        time: 0
        value: -29.92
        inSlope: 5.3100014
        outSlope: 5.3100014
        tangentMode: 34
      - serializedVersion: 2
        time: 0.5
        value: -27.265
        inSlope: 3.356001
        outSlope: 3.356001
        tangentMode: 34
      - serializedVersion: 2
        time: 1
        value: -26.564
        inSlope: 1.0649986
        outSlope: 1.0649986
        tangentMode: 34
      - serializedVersion: 2
        time: 1.5
        value: -26.2
        inSlope: 0.7279968
        outSlope: 0.7279968
        tangentMode: 34
      m_PreInfinity: 2
      m_PostInfinity: 2
      m_RotationOrder: 4
    attribute: m_LocalPosition.x
    path: 
    classID: 4
    script: {fileID: 0}
  - curve:
      serializedVersion: 2
      m_Curve:
      - serializedVersion: 2
        time: 0
        value: 13.24
        inSlope: -0.55799866
        outSlope: -0.55799866
        tangentMode: 34
      - serializedVersion: 2
        time: 0.5
        value: 12.961
        inSlope: 1.033
        outSlope: 1.033
        tangentMode: 34
      - serializedVersion: 2
        time: 1
        value: 14.273
        inSlope: -0.47200012
        outSlope: -0.47200012
        tangentMode: 34
      - serializedVersion: 2
        time: 1.5
        value: 12.489
        inSlope: -3.567999
        outSlope: -3.567999
        tangentMode: 34
      m_PreInfinity: 2
      m_PostInfinity: 2
      m_RotationOrder: 4
    attribute: m_LocalPosition.y
    path: 
    classID: 4
    script: {fileID: 0}
  - curve:
      serializedVersion: 2
      m_Curve:
      - serializedVersion: 2
        time: 0
        value: 7.78
        inSlope: 0.67599964
        outSlope: 0.67599964
        tangentMode: 34
      - serializedVersion: 2
        time: 0.5
        value: 8.118
        inSlope: -3.5470004
        outSlope: -3.5470004
        tangentMode: 34
      - serializedVersion: 2
        time: 1
        value: 4.233
        inSlope: -4.55
        outSlope: -4.55
        tangentMode: 34
      - serializedVersion: 2
        time: 1.5
        value: 3.568
        inSlope: -1.3299994
        outSlope: -1.3299994
        tangentMode: 34
      m_PreInfinity: 2
      m_PostInfinity: 2
      m_RotationOrder: 4
    attribute: m_LocalPosition.z
    path: 
    classID: 4
    script: {fileID: 0}
  - curve:
      serializedVersion: 2
      m_Curve:
      - serializedVersion: 2
        time: 0
        value: 41.7
        inSlope: -9.200005
        outSlope: -9.200005
        tangentMode: 34
      - serializedVersion: 2
        time: 0.5
        value: 37.1
        inSlope: -5.2889977
        outSlope: -5.2889977
        tangentMode: 34
      - serializedVersion: 2
        time: 1
        value: 36.411003
        inSlope: -31.839998
        outSlope: -31.839998
        tangentMode: 34
      - serializedVersion: 2
        time: 1.5
        value: 5.26
        inSlope: -62.302006
        outSlope: -62.302006
        tangentMode: 34
      m_PreInfinity: 2
      m_PostInfinity: 2
      m_RotationOrder: 4
    attribute: localEulerAnglesRaw.x
    path: 
    classID: 4
    script: {fileID: 0}
  - curve:
      serializedVersion: 2
      m_Curve:
      - serializedVersion: 2
        time: 0
        value: -195.02798
        inSlope: 131.93997
        outSlope: 131.93997
        tangentMode: 34
      - serializedVersion: 2
        time: 0.5
        value: -129.058
        inSlope: 117.01298
        outSlope: 117.01298
        tangentMode: 34
      - serializedVersion: 2
        time: 1
        value: -78.01501
        inSlope: 94.302
        outSlope: 94.302
        tangentMode: 34
      - serializedVersion: 2
        time: 1.5
        value: -34.756
        inSlope: 86.51801
        outSlope: 86.51801
        tangentMode: 34
      m_PreInfinity: 2
      m_PostInfinity: 2
      m_RotationOrder: 4
    attribute: localEulerAnglesRaw.y
    path: 
    classID: 4
    script: {fileID: 0}
  - curve:
      serializedVersion: 2
      m_Curve:
      - serializedVersion: 2
        time: 0
        value: -4.056
        inSlope: 0.09800053
        outSlope: 0.09800053
        tangentMode: 34
      - serializedVersion: 2
        time: 0.5
        value: -4.007
        inSlope: 4.0680003
        outSlope: 4.0680003
        tangentMode: 34
      - serializedVersion: 2
        time: 1
        value: 0.012
        inSlope: 7.203
        outSlope: 7.203
        tangentMode: 34
      - serializedVersion: 2
        time: 1.5
        value: 3.196
        inSlope: 6.368
        outSlope: 6.368
        tangentMode: 34
      m_PreInfinity: 2
      m_PostInfinity: 2
      m_RotationOrder: 4
    attribute: localEulerAnglesRaw.z
    path: 
    classID: 4
    script: {fileID: 0}
  m_EulerEditorCurves:
  - curve:
      serializedVersion: 2
      m_Curve: []
      m_PreInfinity: 2
      m_PostInfinity: 2
      m_RotationOrder: 4
    attribute: m_LocalEulerAngles.x
    path: 
    classID: 4
    script: {fileID: 0}
  - curve:
      serializedVersion: 2
      m_Curve: []
      m_PreInfinity: 2
      m_PostInfinity: 2
      m_RotationOrder: 4
    attribute: m_LocalEulerAngles.y
    path: 
    classID: 4
    script: {fileID: 0}
  - curve:
      serializedVersion: 2
      m_Curve: []
      m_PreInfinity: 2
      m_PostInfinity: 2
      m_RotationOrder: 4
    attribute: m_LocalEulerAngles.z
    path: 
    classID: 4
    script: {fileID: 0}
  m_HasGenericRootTransform: 1
  m_HasMotionFloatCurves: 0
  m_GenerateMotionCurves: 0
  m_IsEmpty: 0
  m_Events:
  - time: 1.5
    functionName: Enable
    data: 
    objectReferenceParameter: {fileID: 0}
    floatParameter: 0
    intParameter: 0
    messageOptions: 0
