%YAML 1.1
%TAG !u! tag:unity3d.com,2011:
--- !u!74 &7400000
AnimationClip:
  m_ObjectHideFlags: 0
  m_PrefabParentObject: {fileID: 0}
  m_PrefabInternal: {fileID: 0}
  m_Name: startGUIAnimation
  serializedVersion: 6
  m_Legacy: 0
  m_Compressed: 0
  m_UseHighQualityCurve: 1
  m_RotationCurves: []
  m_CompressedRotationCurves: []
  m_EulerCurves: []
  m_PositionCurves: []
  m_ScaleCurves: []
  m_FloatCurves:
  - curve:
      serializedVersion: 2
      m_Curve:
      - serializedVersion: 2
        time: 0
        value: 0
        inSlope: 0
        outSlope: 0
        tangentMode: 34
      - serializedVersion: 2
        time: 2
        value: 0
        inSlope: 1.5000004
        outSlope: 1.5000004
        tangentMode: 34
      - serializedVersion: 2
        time: 2.3333333
        value: 1
        inSlope: 3.0000007
        outSlope: 3.0000007
        tangentMode: 34
      m_PreInfinity: 2
      m_PostInfinity: 2
      m_RotationOrder: 4
    attribute: m_Color.a
    path: Image
    classID: 114
    script: {fileID: -765806418, guid: f5f67c52d1564df4a8936ccd202a3bd8, type: 3}
  - curve:
      serializedVersion: 2
      m_Curve:
      - serializedVersion: 2
        time: 0
        value: 0
        inSlope: 0
        outSlope: 0
        tangentMode: 34
      - serializedVersion: 2
        time: 2
        value: 0
        inSlope: 1.5000004
        outSlope: 1.5000004
        tangentMode: 34
      - serializedVersion: 2
        time: 2.3333333
        value: 1
        inSlope: 3.0000007
        outSlope: 3.0000007
        tangentMode: 34
      m_PreInfinity: 2
      m_PostInfinity: 2
      m_RotationOrder: 4
    attribute: m_Color.a
    path: topDisplay
    classID: 114
    script: {fileID: 708705254, guid: f5f67c52d1564df4a8936ccd202a3bd8, type: 3}
  - curve:
      serializedVersion: 2
      m_Curve:
      - serializedVersion: 2
        time: 1.0833334
        value: 0
        inSlope: 6.666668
        outSlope: 6.666668
        tangentMode: 34
      - serializedVersion: 2
        time: 1.2333333
        value: 1
        inSlope: 3.333334
        outSlope: 3.333334
        tangentMode: 34
      - serializedVersion: 2
        time: 2
        value: 1
        inSlope: -1.5000004
        outSlope: -1.5000004
        tangentMode: 34
      - serializedVersion: 2
        time: 2.3333333
        value: 0
        inSlope: -3.0000007
        outSlope: -3.0000007
        tangentMode: 34
      m_PreInfinity: 2
      m_PostInfinity: 2
      m_RotationOrder: 4
    attribute: m_Color.a
    path: IntroTextHolder/IntroText (3)
    classID: 114
    script: {fileID: 708705254, guid: f5f67c52d1564df4a8936ccd202a3bd8, type: 3}
  - curve:
      serializedVersion: 2
      m_Curve:
      - serializedVersion: 2
        time: 0.6666667
        value: 0
        inSlope: 5.4545455
        outSlope: 5.4545455
        tangentMode: 34
      - serializedVersion: 2
        time: 0.85
        value: 1
        inSlope: 2.7272727
        outSlope: 2.7272727
        tangentMode: 34
      - serializedVersion: 2
        time: 2
        value: 1
        inSlope: -1.5000004
        outSlope: -1.5000004
        tangentMode: 34
      - serializedVersion: 2
        time: 2.3333333
        value: 0
        inSlope: -3.0000007
        outSlope: -3.0000007
        tangentMode: 34
      m_PreInfinity: 2
      m_PostInfinity: 2
      m_RotationOrder: 4
    attribute: m_Color.a
    path: IntroTextHolder/IntroText (2)
    classID: 114
    script: {fileID: 708705254, guid: f5f67c52d1564df4a8936ccd202a3bd8, type: 3}
  - curve:
      serializedVersion: 2
      m_Curve:
      - serializedVersion: 2
        time: 0.33333334
        value: 0
        inSlope: 6.0000005
        outSlope: 6.0000005
        tangentMode: 34
      - serializedVersion: 2
        time: 0.5
        value: 1
        inSlope: 3.0000002
        outSlope: 3.0000002
        tangentMode: 34
      - serializedVersion: 2
        time: 2
        value: 1
        inSlope: -1.5000004
        outSlope: -1.5000004
        tangentMode: 34
      - serializedVersion: 2
        time: 2.3333333
        value: 0
        inSlope: -3.0000007
        outSlope: -3.0000007
        tangentMode: 34
      m_PreInfinity: 2
      m_PostInfinity: 2
      m_RotationOrder: 4
    attribute: m_Color.a
    path: IntroTextHolder/IntroText (1)
    classID: 114
    script: {fileID: 708705254, guid: f5f67c52d1564df4a8936ccd202a3bd8, type: 3}
  - curve:
      serializedVersion: 2
      m_Curve:
      - serializedVersion: 2
        time: 0
        value: 0
        inSlope: 6
        outSlope: 6
        tangentMode: 34
      - serializedVersion: 2
        time: 0.16666667
        value: 1
        inSlope: 3
        outSlope: 3
        tangentMode: 34
      - serializedVersion: 2
        time: 2
        value: 1
        inSlope: -1.5000004
        outSlope: -1.5000004
        tangentMode: 34
      - serializedVersion: 2
        time: 2.3333333
        value: 0
        inSlope: -3.0000007
        outSlope: -3.0000007
        tangentMode: 34
      m_PreInfinity: 2
      m_PostInfinity: 2
      m_RotationOrder: 4
    attribute: m_Color.a
    path: IntroTextHolder/IntroText
    classID: 114
    script: {fileID: 708705254, guid: f5f67c52d1564df4a8936ccd202a3bd8, type: 3}
  m_PPtrCurves: []
  m_SampleRate: 60
  m_WrapMode: 0
  m_Bounds:
    m_Center: {x: 0, y: 0, z: 0}
    m_Extent: {x: 0, y: 0, z: 0}
  m_ClipBindingConstant:
    genericBindings:
    - path: 83635035
      attribute: 304273561
      script: {fileID: -765806418, guid: f5f67c52d1564df4a8936ccd202a3bd8, type: 3}
      classID: 114
      customType: 0
      isPPtrCurve: 0
    - path: 1839334960
      attribute: 304273561
      script: {fileID: 708705254, guid: f5f67c52d1564df4a8936ccd202a3bd8, type: 3}
      classID: 114
      customType: 0
      isPPtrCurve: 0
    - path: 292684670
      attribute: 304273561
      script: {fileID: 708705254, guid: f5f67c52d1564df4a8936ccd202a3bd8, type: 3}
      classID: 114
      customType: 0
      isPPtrCurve: 0
    - path: 141111871
      attribute: 304273561
      script: {fileID: 708705254, guid: f5f67c52d1564df4a8936ccd202a3bd8, type: 3}
      classID: 114
      customType: 0
      isPPtrCurve: 0
    - path: 591684092
      attribute: 304273561
      script: {fileID: 708705254, guid: f5f67c52d1564df4a8936ccd202a3bd8, type: 3}
      classID: 114
      customType: 0
      isPPtrCurve: 0
    - path: 1225899617
      attribute: 304273561
      script: {fileID: 708705254, guid: f5f67c52d1564df4a8936ccd202a3bd8, type: 3}
      classID: 114
      customType: 0
      isPPtrCurve: 0
    pptrCurveMapping: []
  m_AnimationClipSettings:
    serializedVersion: 2
    m_AdditiveReferencePoseClip: {fileID: 0}
    m_AdditiveReferencePoseTime: 0
    m_StartTime: 0
    m_StopTime: 2.3333333
    m_OrientationOffsetY: 0
    m_Level: 0
    m_CycleOffset: 0
    m_HasAdditiveReferencePose: 0
    m_LoopTime: 0
    m_LoopBlend: 0
    m_LoopBlendOrientation: 0
    m_LoopBlendPositionY: 0
    m_LoopBlendPositionXZ: 0
    m_KeepOriginalOrientation: 0
    m_KeepOriginalPositionY: 1
    m_KeepOriginalPositionXZ: 0
    m_HeightFromFeet: 0
    m_Mirror: 0
  m_EditorCurves:
  - curve:
      serializedVersion: 2
      m_Curve:
      - serializedVersion: 2
        time: 0
        value: 0
        inSlope: 0
        outSlope: 0
        tangentMode: 34
      - serializedVersion: 2
        time: 2
        value: 0
        inSlope: 1.5000004
        outSlope: 1.5000004
        tangentMode: 34
      - serializedVersion: 2
        time: 2.3333333
        value: 1
        inSlope: 3.0000007
        outSlope: 3.0000007
        tangentMode: 34
      m_PreInfinity: 2
      m_PostInfinity: 2
      m_RotationOrder: 4
    attribute: m_Color.a
    path: Image
    classID: 114
    script: {fileID: -765806418, guid: f5f67c52d1564df4a8936ccd202a3bd8, type: 3}
  - curve:
      serializedVersion: 2
      m_Curve:
      - serializedVersion: 2
        time: 0
        value: 0
        inSlope: 0
        outSlope: 0
        tangentMode: 34
      - serializedVersion: 2
        time: 2
        value: 0
        inSlope: 1.5000004
        outSlope: 1.5000004
        tangentMode: 34
      - serializedVersion: 2
        time: 2.3333333
        value: 1
        inSlope: 3.0000007
        outSlope: 3.0000007
        tangentMode: 34
      m_PreInfinity: 2
      m_PostInfinity: 2
      m_RotationOrder: 4
    attribute: m_Color.a
    path: topDisplay
    classID: 114
    script: {fileID: 708705254, guid: f5f67c52d1564df4a8936ccd202a3bd8, type: 3}
  - curve:
      serializedVersion: 2
      m_Curve:
      - serializedVersion: 2
        time: 1.0833334
        value: 0
        inSlope: 6.666668
        outSlope: 6.666668
        tangentMode: 34
      - serializedVersion: 2
        time: 1.2333333
        value: 1
        inSlope: 3.333334
        outSlope: 3.333334
        tangentMode: 34
      - serializedVersion: 2
        time: 2
        value: 1
        inSlope: -1.5000004
        outSlope: -1.5000004
        tangentMode: 34
      - serializedVersion: 2
        time: 2.3333333
        value: 0
        inSlope: -3.0000007
        outSlope: -3.0000007
        tangentMode: 34
      m_PreInfinity: 2
      m_PostInfinity: 2
      m_RotationOrder: 4
    attribute: m_Color.a
    path: IntroTextHolder/IntroText (3)
    classID: 114
    script: {fileID: 708705254, guid: f5f67c52d1564df4a8936ccd202a3bd8, type: 3}
  - curve:
      serializedVersion: 2
      m_Curve:
      - serializedVersion: 2
        time: 0.6666667
        value: 0
        inSlope: 5.4545455
        outSlope: 5.4545455
        tangentMode: 34
      - serializedVersion: 2
        time: 0.85
        value: 1
        inSlope: 2.7272727
        outSlope: 2.7272727
        tangentMode: 34
      - serializedVersion: 2
        time: 2
        value: 1
        inSlope: -1.5000004
        outSlope: -1.5000004
        tangentMode: 34
      - serializedVersion: 2
        time: 2.3333333
        value: 0
        inSlope: -3.0000007
        outSlope: -3.0000007
        tangentMode: 34
      m_PreInfinity: 2
      m_PostInfinity: 2
      m_RotationOrder: 4
    attribute: m_Color.a
    path: IntroTextHolder/IntroText (2)
    classID: 114
    script: {fileID: 708705254, guid: f5f67c52d1564df4a8936ccd202a3bd8, type: 3}
  - curve:
      serializedVersion: 2
      m_Curve:
      - serializedVersion: 2
        time: 0.33333334
        value: 0
        inSlope: 6.0000005
        outSlope: 6.0000005
        tangentMode: 34
      - serializedVersion: 2
        time: 0.5
        value: 1
        inSlope: 3.0000002
        outSlope: 3.0000002
        tangentMode: 34
      - serializedVersion: 2
        time: 2
        value: 1
        inSlope: -1.5000004
        outSlope: -1.5000004
        tangentMode: 34
      - serializedVersion: 2
        time: 2.3333333
        value: 0
        inSlope: -3.0000007
        outSlope: -3.0000007
        tangentMode: 34
      m_PreInfinity: 2
      m_PostInfinity: 2
      m_RotationOrder: 4
    attribute: m_Color.a
    path: IntroTextHolder/IntroText (1)
    classID: 114
    script: {fileID: 708705254, guid: f5f67c52d1564df4a8936ccd202a3bd8, type: 3}
  - curve:
      serializedVersion: 2
      m_Curve:
      - serializedVersion: 2
        time: 0
        value: 0
        inSlope: 6
        outSlope: 6
        tangentMode: 34
      - serializedVersion: 2
        time: 0.16666667
        value: 1
        inSlope: 3
        outSlope: 3
        tangentMode: 34
      - serializedVersion: 2
        time: 2
        value: 1
        inSlope: -1.5000004
        outSlope: -1.5000004
        tangentMode: 34
      - serializedVersion: 2
        time: 2.3333333
        value: 0
        inSlope: -3.0000007
        outSlope: -3.0000007
        tangentMode: 34
      m_PreInfinity: 2
      m_PostInfinity: 2
      m_RotationOrder: 4
    attribute: m_Color.a
    path: IntroTextHolder/IntroText
    classID: 114
    script: {fileID: 708705254, guid: f5f67c52d1564df4a8936ccd202a3bd8, type: 3}
  m_EulerEditorCurves: []
  m_HasGenericRootTransform: 0
  m_HasMotionFloatCurves: 0
  m_GenerateMotionCurves: 0
  m_IsEmpty: 0
  m_Events: []
